<?xml version="1.0" encoding="UTF-8"?>
<svg id="Camada_1" width="308" height="300" version="1.1" viewBox="0 0 308 300" xml:space="preserve" xmlns="http://www.w3.org/2000/svg" xmlns:cc="http://creativecommons.org/ns#" xmlns:dc="http://purl.org/dc/elements/1.1/" xmlns:rdf="http://www.w3.org/1999/02/22-rdf-syntax-ns#" xmlns:xlink="http://www.w3.org/1999/xlink"><metadata id="metadata99"><rdf:RDF><cc:Work rdf:about=""><dc:format>image/svg+xml</dc:format><dc:type rdf:resource="http://purl.org/dc/dcmitype/StillImage"/><dc:title/></cc:Work></rdf:RDF></metadata>
<style id="style2" type="text/css">
	.st0{clip-path:url(#SVGID_2_);fill:url(#SVGID_3_);}
	.st1{clip-path:url(#SVGID_5_);fill:url(#SVGID_6_);}
	.st2{clip-path:url(#SVGID_8_);fill:url(#SVGID_9_);}
	.st3{clip-path:url(#SVGID_11_);fill:url(#SVGID_12_);}
	.st4{clip-path:url(#SVGID_14_);fill:url(#SVGID_15_);}
	.st5{clip-path:url(#SVGID_17_);fill:url(#SVGID_18_);}
	.st6{clip-path:url(#SVGID_20_);fill:url(#SVGID_21_);}
	.st7{clip-path:url(#SVGID_23_);fill:url(#SVGID_24_);}
	.st8{clip-path:url(#SVGID_26_);fill:url(#SVGID_27_);}
	.st9{clip-path:url(#SVGID_29_);fill:url(#SVGID_30_);}
	.st10{clip-path:url(#SVGID_32_);fill:url(#SVGID_33_);}
	.st11{clip-path:url(#SVGID_35_);fill:url(#SVGID_36_);}
	.st12{clip-path:url(#SVGID_38_);fill:url(#SVGID_39_);}
	.st13{clip-path:url(#SVGID_41_);fill:url(#SVGID_42_);}
	.st14{clip-path:url(#SVGID_44_);fill:url(#SVGID_45_);}
	.st15{clip-path:url(#SVGID_47_);fill:url(#SVGID_48_);}
	.st16{clip-path:url(#SVGID_50_);fill:url(#SVGID_51_);}
	.st17{clip-path:url(#SVGID_53_);fill:url(#SVGID_54_);}
	.st18{clip-path:url(#SVGID_56_);fill:url(#SVGID_57_);}
	.st19{clip-path:url(#SVGID_59_);fill:url(#SVGID_60_);}
	.st20{clip-path:url(#SVGID_62_);fill:url(#SVGID_63_);}
	.st21{clip-path:url(#SVGID_65_);fill:url(#SVGID_66_);}
	.st22{clip-path:url(#SVGID_68_);fill:url(#SVGID_69_);}
	.st23{clip-path:url(#SVGID_71_);fill:url(#SVGID_72_);}
</style>
<g id="g67" transform="matrix(.98534 0 0 .98534 -71.164 -74.425)">
	<g id="g23">
		<defs id="defs5">
			<path id="SVGID_28_" d="m172.3 198.7c-5.09-0.49-7.71-1.8-8.37-7.22-0.98-10.34-0.98-20.84-0.98-31.51 0-10.5 0-21.01 0.98-31.35 0.66-5.42 3.28-6.73 8.37-7.22 18.05-1.97 37.42-2.46 56.13-2.46s38.08 0.49 55.97 2.46c5.25 0.49 7.88 1.81 8.54 7.22 0.82 10.34 0.82 20.85 0.82 31.35 0 10.67 0 21.17-0.82 31.51-0.66 5.42-3.28 6.73-8.53 7.22-17.89 1.97-37.26 2.46-55.97 2.46-18.72 0.01-38.09-0.49-56.14-2.46m-25.77-38.73c0 45.3 36.76 82.06 81.9 82.06 45.13 0 82.06-36.76 82.06-82.06 0-45.13-36.93-81.9-82.06-81.9s-81.9 36.77-81.9 81.9"/>
		</defs>
		<clipPath id="SVGID_2_">
			<use id="use7" width="100%" height="100%" xlink:href="#SVGID_28_"/>
		</clipPath>
		
			<linearGradient id="SVGID_3_" x1="-96.789" x2="-95.789" y1="481.34" y2="481.34" gradientTransform="matrix(265.71 354.29 354.29 -265.71 -144660 162249)" gradientUnits="userSpaceOnUse">
			<stop id="stop10" stop-color="#8028FF" offset="0"/>
			<stop id="stop12" stop-color="#0031FF" offset=".3461"/>
			<stop id="stop14" stop-color="#00B7FF" offset=".5879"/>
			<stop id="stop16" stop-color="#00C36D" offset=".9993"/>
			<stop id="stop18" stop-color="#00C36D" offset="1"/>
		</linearGradient>
		<polygon id="polygon21" class="st0" points="67.83 137.1 251.47 -0.63 389.19 183.01 205.56 320.73" clip-path="url(#SVGID_2_)" fill="url(#SVGID_3_)"/>
	</g>
	<g id="g44">
		<defs id="defs26">
			<path id="SVGID_31_" d="m195.28 159.97c0 18.22 14.44 33.32 33.15 33.32s33.15-15.1 33.15-33.32c0-18.05-14.44-33.15-33.15-33.15s-33.15 15.1-33.15 33.15"/>
		</defs>
		<clipPath id="SVGID_5_">
			<use id="use28" width="100%" height="100%" xlink:href="#SVGID_31_"/>
		</clipPath>
		
			<linearGradient id="SVGID_6_" x1="-96.789" x2="-95.789" y1="481.34" y2="481.34" gradientTransform="matrix(265.71 354.29 354.29 -265.71 -144660 162249)" gradientUnits="userSpaceOnUse">
			<stop id="stop31" stop-color="#8028FF" offset="0"/>
			<stop id="stop33" stop-color="#0031FF" offset=".3461"/>
			<stop id="stop35" stop-color="#00B7FF" offset=".5879"/>
			<stop id="stop37" stop-color="#00C36D" offset=".9993"/>
			<stop id="stop39" stop-color="#00C36D" offset="1"/>
		</linearGradient>
		<polygon id="polygon42" class="st1" points="163.37 150.75 237.71 94.99 293.49 169.36 219.15 225.11" clip-path="url(#SVGID_5_)" fill="url(#SVGID_6_)"/>
	</g>
	<g id="g65">
		<defs id="defs47">
			<path id="SVGID_34_" d="m90.72 317.64c0-10.22 7.32-16.99 16.02-16.99s15.89 6.77 15.89 16.99c0 10.08-7.18 16.99-15.89 16.99-8.7 0-16.02-6.91-16.02-16.99m-16.43 0.14c0 18.79 13.68 31.77 30.94 31.77 7.74 0 13.68-3.59 17.13-7.32-0.14 13.12-7.05 19.06-18.92 19.06-6.35 0-12.29-1.93-19.2-6.35-1.8-1.24-3.87-0.83-4.84 1.11l-4.14 8.15c-0.97 1.93-0.69 3.73 1.24 4.97 8.57 5.52 18.65 8.29 27.35 8.29 22.79 0 35.36-12.29 35.36-40.61v-47.79c0-2.07-1.24-3.31-3.31-3.31h-9.39c-2.07 0-3.31 1.24-3.31 3.31v3.59c-3.73-4.56-10.64-8.01-17.54-8.01-16.87-0.01-31.37 14.35-31.37 33.14m114.79 0c0-9.81 7.18-16.99 16.02-16.99s16.02 7.18 16.02 16.99-7.18 16.99-16.02 16.99-16.02-7.18-16.02-16.99m-16.72 0c0 19.2 14.64 33.15 32.74 33.15 17.82 0 32.74-13.95 32.74-33.15s-14.64-33.15-32.74-33.15c-17.82 0-32.74 13.95-32.74 33.15m161.62 0c0-9.81 7.18-16.99 16.02-16.99s16.02 7.18 16.02 16.99-7.18 16.99-16.02 16.99-16.02-7.18-16.02-16.99m-16.72 0c0 19.2 14.64 33.15 32.74 33.15 17.82 0 32.74-13.95 32.74-33.15s-14.64-33.15-32.74-33.15c-17.82 0-32.74 13.95-32.74 33.15m-55.11 0c0-10.08 7.18-16.99 15.75-16.99 8.56 0 15.75 6.91 15.75 16.99 0 10.22-7.18 16.99-15.75 16.99s-15.75-6.77-15.75-16.99m-13.26-58.43c-2.07 0-3.31 1.24-3.31 3.32v83.85c0 2.07 1.24 3.32 3.31 3.32h9.26c2.07 0 3.31-1.24 3.31-3.32v-3.59c4.01 4.56 11.46 8.01 18.79 8.01 16.16 0 30.11-14.64 30.11-33.15 0-18.79-14.09-33.15-30.53-33.15-6.63 0-13.12 2.9-17.4 7.32v-29.28c0-2.07-1.24-3.32-3.32-3.32h-10.22zm-101.12 3.87v82.74c0 4.42 2.76 6.21 6.77 4.42l5.25-2.35c3.31-1.52 4.83-3.73 4.83-7.32v-72.24c0-3.59-1.52-5.8-4.83-7.32l-5.25-2.35c-1.04-0.46-1.99-0.69-2.84-0.69-2.41 0-3.93 1.83-3.93 5.11"/>
		</defs>
		<clipPath id="SVGID_8_">
			<use id="use49" width="100%" height="100%" xlink:href="#SVGID_34_"/>
		</clipPath>
		
			<linearGradient id="SVGID_9_" x1="-96.789" x2="-95.789" y1="481.36" y2="481.36" gradientTransform="matrix(265.71 354.29 354.29 -265.71 -144744 162312)" gradientUnits="userSpaceOnUse">
			<stop id="stop52" stop-color="#8028FF" offset="0"/>
			<stop id="stop54" stop-color="#0031FF" offset=".3461"/>
			<stop id="stop56" stop-color="#00B7FF" offset=".5879"/>
			<stop id="stop58" stop-color="#00C36D" offset=".9993"/>
			<stop id="stop60" stop-color="#00C36D" offset="1"/>
		</linearGradient>
		<polygon id="polygon63" class="st2" points="17 301.07 271.7 110.05 440.02 334.49 185.33 525.51" clip-path="url(#SVGID_8_)" fill="url(#SVGID_9_)"/>
	</g>
</g>

</svg>
